…
## What is mean total number of steps taken per day?

```r
# Total steps per day
daily_steps <- activity %>% 
  filter(!is.na(steps)) %>%
  group_by(date) %>%
  summarise(total_steps = sum(steps))

daily_steps
```

```
## # A tibble: 53 x 2
##    date       total_steps
##    <chr>            <int>
##  1 2012-10-02         126
##  2 2012-10-03       11352
##  3 2012-10-04       12116
##  4 2012-10-05       13294
##  5 2012-10-06       15420
##  6 2012-10-07       11015
##  7 2012-10-09       12811
##  8 2012-10-10        9900
##  9 2012-10-11       10304
## 10 2012-10-12       17382
## # ... with 43 more rows
```
…
```r
# Calculated mean and median number of steps per day
average_steps <- activity %>% 
  filter(!is.na(steps)) %>%
  group_by(date) %>%
  summarise(mean_steps = mean(steps),
            median_steps = median(steps))

average_steps
```

```
## # A tibble: 53 x 3
##    date       mean_steps median_steps
##    <chr>           <dbl>        <dbl>
##  1 2012-10-02      0.438            0
##  2 2012-10-03     39.4              0
##  3 2012-10-04     42.1              0
##  4 2012-10-05     46.2              0
##  5 2012-10-06     53.5              0
##  6 2012-10-07     38.2              0
##  7 2012-10-09     44.5              0
##  8 2012-10-10     34.4              0
##  9 2012-10-11     35.8              0
## 10 2012-10-12     60.4              0
## # ... with 43 more rows
```
…
